{
  "project_info": {
    "project_number": "185725172408",
    "firebase_url": "https://curexchange-faf05.firebaseio.com",
    "project_id": "curexchange-faf05",
    "storage_bucket": "curexchange-faf05.appspot.com"
  },
  "client": [
    {
      "client_info": {
        "mobilesdk_app_id": "1:185725172408:android:dbc5c287fa107987",
        "android_client_info": {
          "package_name": "com.example.ain.curexchange"
        }
      },
      "oauth_client": [
        {
          "client_id": "185725172408-ees3p4o9g2vsksqg432r4rukvlk6ha3o.apps.googleusercontent.com",
          "client_type": 1,
          "android_info": {
            "package_name": "com.example.ain.curexchange",
            "certificate_hash": "9091DC15142E78238C7DB6167B755F9848BF16A7"
          }
        },
        {
          "client_id": "185725172408-qnklisevc0ucnpib1ffjslt980jaonau.apps.googleusercontent.com",
          "client_type": 3
        }
      ],
      "api_key": [
        {
          "current_key": "AIzaSyBdOV59h3Rtu0uXXKf23wFA-a9jh2VWhFI"
        }
      ],
      "services": {
        "analytics_service": {
          "status": 1
        },
        "appinvite_service": {
          "status": 2,
          "other_platform_oauth_client": [
            {
              "client_id": "185725172408-qnklisevc0ucnpib1ffjslt980jaonau.apps.googleusercontent.com",
              "client_type": 3
            }
          ]
        },
        "ads_service": {
          "status": 2
        }
      }
    }
  ],
  "configuration_version": "1"
}